[gd_resource type="TileSet" load_steps=6 format=2]

[ext_resource path="res://pavement_tileset.png" type="Texture" id=1]
[ext_resource path="res://Assets/pavement_tileset.png" type="Texture" id=2]

[sub_resource type="RectangleShape2D" id=1]
extents = Vector2( 4, 4 )

[sub_resource type="RectangleShape2D" id=2]
extents = Vector2( 4, 4 )

[sub_resource type="ConvexPolygonShape2D" id=3]
points = PoolVector2Array( -8, 8, 8, -8, 8, 8 )

[resource]
0/name = "Sprite"
0/texture = ExtResource( 1 )
0/tex_offset = Vector2( 0, 0 )
0/modulate = Color( 1, 1, 1, 1 )
0/region = Rect2( 0, 0, 8, 8 )
0/tile_mode = 0
0/occluder_offset = Vector2( 4, 4 )
0/navigation_offset = Vector2( 4, 4 )
0/shape_offset = Vector2( 4, 4 )
0/shape_transform = Transform2D( 1, 0, 0, 1, 4, 4 )
0/shape = SubResource( 1 )
0/shape_one_way = false
0/shape_one_way_margin = 1.0
0/shapes = [ {
"autotile_coord": Vector2( 0, 0 ),
"one_way": false,
"one_way_margin": 1.0,
"shape": SubResource( 1 ),
"shape_transform": Transform2D( 1, 0, 0, 1, 4, 4 )
} ]
0/z_index = 0
1/name = "square"
1/texture = ExtResource( 2 )
1/tex_offset = Vector2( 0, 0 )
1/modulate = Color( 1, 1, 1, 1 )
1/region = Rect2( 0, 0, 8, 8 )
1/tile_mode = 0
1/occluder_offset = Vector2( 4, 4 )
1/navigation_offset = Vector2( 4, 4 )
1/shape_offset = Vector2( 4, 4 )
1/shape_transform = Transform2D( 1, 0, 0, 1, 4, 4 )
1/shape = SubResource( 2 )
1/shape_one_way = false
1/shape_one_way_margin = 1.0
1/shapes = [ {
"autotile_coord": Vector2( 0, 0 ),
"one_way": false,
"one_way_margin": 1.0,
"shape": SubResource( 2 ),
"shape_transform": Transform2D( 1, 0, 0, 1, 4, 4 )
} ]
1/z_index = 0
2/name = "triangle"
2/texture = ExtResource( 2 )
2/tex_offset = Vector2( 0, 0 )
2/modulate = Color( 1, 1, 1, 1 )
2/region = Rect2( 16, 0, 16, 16 )
2/tile_mode = 0
2/occluder_offset = Vector2( 8, 8 )
2/navigation_offset = Vector2( 8, 8 )
2/shape_offset = Vector2( 8, 8 )
2/shape_transform = Transform2D( 1, 0, 0, 1, 8, 8 )
2/shape = SubResource( 3 )
2/shape_one_way = false
2/shape_one_way_margin = 1.0
2/shapes = [ {
"autotile_coord": Vector2( 0, 0 ),
"one_way": false,
"one_way_margin": 1.0,
"shape": SubResource( 3 ),
"shape_transform": Transform2D( 1, 0, 0, 1, 8, 8 )
} ]
2/z_index = 0
