[gd_scene load_steps=5 format=2]

[ext_resource path="res://Platforming/Level_10/preload_10.gd" type="Script" id=1]
[ext_resource path="res://Global/RootScripts/Phone/insta.gd" type="Script" id=2]
[ext_resource path="res://Global/InstaScenes/app.tscn" type="PackedScene" id=3]
[ext_resource path="res://Assets/Audio/Music/happy_strummin.ogg" type="AudioStream" id=4]

[node name="root_lv10_insta" type="Control"]
anchor_right = 1.0
anchor_bottom = 1.0
script = ExtResource( 2 )
__meta__ = {
"_edit_use_anchors_": false,
"_editor_description_": "11"
}

[node name="music" type="AudioStreamPlayer" parent="."]
stream = ExtResource( 4 )
bus = "Music"

[node name="tween" type="Tween" parent="."]

[node name="preload" type="Node" parent="."]
script = ExtResource( 1 )

[node name="timer" type="Timer" parent="."]

[node name="App" parent="." instance=ExtResource( 3 )]

[node name="ColorRect" type="ColorRect" parent="."]
margin_right = 1024.0
margin_bottom = 600.0
mouse_filter = 2
color = Color( 0, 0, 0, 0 )
