[gd_scene load_steps=11 format=2]

[ext_resource path="res://Global/InstaScenes/app.gd" type="Script" id=1]
[ext_resource path="res://Global/InstaScenes/home.tscn" type="PackedScene" id=2]
[ext_resource path="res://Assets/icons/icons8-search-144.png" type="Texture" id=3]
[ext_resource path="res://Assets/icons/icons8-sac-de-courses-plein-96.png" type="Texture" id=4]
[ext_resource path="res://Assets/icons/icons8-accueil-144.png" type="Texture" id=5]
[ext_resource path="res://Assets/icons/icons8-liste-de-lecture-video-96.png" type="Texture" id=6]
[ext_resource path="res://Assets/icons/foo_pfp.png" type="Texture" id=7]
[ext_resource path="res://Assets/icons/icons8-accueil-96.png" type="Texture" id=8]

[sub_resource type="Gradient" id=1]
offsets = PoolRealArray( 0 )
colors = PoolColorArray( 0.0546875, 0.0546875, 0.0546875, 1 )

[sub_resource type="GradientTexture" id=2]
gradient = SubResource( 1 )

[node name="App" type="Control"]
anchor_right = 1.0
anchor_bottom = 1.0
margin_left = 320.0
margin_right = 64.0
margin_bottom = 600.0
rect_scale = Vector2( 0.5, 0.5 )
script = ExtResource( 1 )
__meta__ = {
"_edit_use_anchors_": false
}

[node name="CurrentView" type="Control" parent="."]
anchor_right = 1.0
anchor_bottom = 1.0
mouse_filter = 1
__meta__ = {
"_edit_use_anchors_": false
}

[node name="Home" parent="CurrentView" instance=ExtResource( 2 )]
margin_left = 0.0
margin_right = 640.0
margin_bottom = 976.0

[node name="NinePatchRect" type="NinePatchRect" parent="."]
anchor_top = 1.0
anchor_right = 1.0
anchor_bottom = 1.0
margin_top = -125.0
texture = SubResource( 2 )
__meta__ = {
"_edit_use_anchors_": false
}

[node name="BottomPanel" type="GridContainer" parent="."]
anchor_top = 1.0
anchor_right = 1.0
anchor_bottom = 1.0
margin_top = -127.0
margin_bottom = -2.0
rect_min_size = Vector2( 0, 125 )
size_flags_horizontal = 3
columns = 5
__meta__ = {
"_edit_use_anchors_": false
}

[node name="HomeBtn" type="TextureButton" parent="BottomPanel"]
margin_right = 150.0
margin_bottom = 130.0
size_flags_horizontal = 3
size_flags_vertical = 3
toggle_mode = true
texture_normal = ExtResource( 8 )
texture_pressed = ExtResource( 5 )
expand = true
stretch_mode = 3
__meta__ = {
"_edit_use_anchors_": false
}

[node name="SearchBtn" type="TextureButton" parent="BottomPanel"]
margin_left = 154.0
margin_right = 304.0
margin_bottom = 130.0
size_flags_horizontal = 3
size_flags_vertical = 3
texture_normal = ExtResource( 3 )
expand = true
stretch_mode = 3
__meta__ = {
"_edit_use_anchors_": false
}

[node name="VideoBtn" type="TextureButton" parent="BottomPanel"]
margin_left = 308.0
margin_right = 458.0
margin_bottom = 130.0
size_flags_horizontal = 3
size_flags_vertical = 3
texture_normal = ExtResource( 6 )
expand = true
stretch_mode = 3
__meta__ = {
"_edit_use_anchors_": false
}

[node name="ShopBtn" type="TextureButton" parent="BottomPanel"]
margin_left = 462.0
margin_right = 612.0
margin_bottom = 130.0
size_flags_horizontal = 3
size_flags_vertical = 3
texture_normal = ExtResource( 4 )
expand = true
stretch_mode = 3
__meta__ = {
"_edit_use_anchors_": false
}

[node name="MarginContainer" type="MarginContainer" parent="BottomPanel"]
margin_left = 616.0
margin_right = 766.0
margin_bottom = 130.0
size_flags_horizontal = 3
size_flags_vertical = 3
custom_constants/margin_top = 20
custom_constants/margin_bottom = 20

[node name="ProfileBtn" type="TextureButton" parent="BottomPanel/MarginContainer"]
margin_top = 20.0
margin_right = 150.0
margin_bottom = 110.0
grow_horizontal = 2
grow_vertical = 2
rect_min_size = Vector2( 0, 90 )
size_flags_horizontal = 3
size_flags_vertical = 3
toggle_mode = true
texture_normal = ExtResource( 7 )
texture_pressed = ExtResource( 7 )
expand = true
stretch_mode = 5
__meta__ = {
"_edit_use_anchors_": false
}

[connection signal="pressed" from="BottomPanel/SearchBtn" to="." method="_on_SearchBtn_pressed"]
[connection signal="pressed" from="BottomPanel/VideoBtn" to="." method="_on_VideoBtn_pressed"]
[connection signal="pressed" from="BottomPanel/ShopBtn" to="." method="_on_ShopBtn_pressed"]
